{
  "morning": [],
  "afternoon": [],
  "evening": [
    "We'll always have Paris. - Casablanca",
    "Isn't everything we do in life a way to be loved a little more? - Celine, Before Sunrise",
    "I kind of see this all love as this, escape for two people who don't know how to be alone. People always talk about how love is this totally unselfish, giving thing, but if you think about it, there's nothing more selfish. - Jesse, Before Sunrise"
  ],
  "anytime": [
    "A journey of a thousand miles begins with a single step - Laozi",
    "Mama always said life was like a box of chocolates. You never know what you're gonna get. - Forrest Gump",
    "Carpe diem. Seize the day, boys. Make your lives extraordinary. - Dead Poets Society",
    "Great men are not born great, they grow great. - The Godfather",
    "Every man dies, but not every man really lives. - William Wallace, Braveheart",
    "Get busy livin’, or get busy dyin’. – Andy Dufresne, The Shawshank Redemption",
    "I read somewhere how important it is in life not necessarily to be strong... but to feel strong. - Christopher McCandless, Into the Wild",
    "The core of man's spirit comes from new experiences. - Christopher McCandless, Into the Wild",
    "Happiness only real when shared. - Christopher McCandless, Into the Wild",
    "Beautiful things don't ask for attention. - Sean O'Connell, The Secret Life of Walter Mitty",
    "To see the world, things dangerous to come to, to see behind walls, draw closer, to find each other, and to feel. That is the purpose of life.",
    "Life is about courage and going into the unknown. - Cheryl, The Secret Life of Walter Mitty",
    "It's only after we've lost everything that we're free to do anything. - Tyler Durden, Fight Club",
    "You're not your job. You're not how much money you have in the bank. You're not the car you drive. You're not the contents of your wallet. You're not your fucking khakis. You're the all-singing, all-dancing crap of the world. - Tyler Durden, Fight Club",
    "We're defined by our actions, not our words. - Kielyr, Captain Fantastic",
    "I don't get lucky. I make my own luck. - Harvey Spector, Suits",
    "I watch the midnight sun sink towards the horizon, then it stops and doesn't enter the sea. I think of my father, mother, and you, how you've always said that everything is beautiful. I think you were right. Everything is truly beautiful. - Andrea Utano, The Best of Youth",
    "Twenty years from now you will be more disappointed by the things you didn't do than by the ones you did. So throw off the bowlines. Sail away from the safe harbor. Catch the trade winds in your sails. Explore. Dream. Discover. - H. Jackson Brown Jr., P.S. I Love You"
  ]
}